<?xml version="1.0" encoding="UTF-8" standalone="no"?>
<svg
   xmlns:dc="http://purl.org/dc/elements/1.1/"
   xmlns:cc="http://creativecommons.org/ns#"
   xmlns:rdf="http://www.w3.org/1999/02/22-rdf-syntax-ns#"
   xmlns:svg="http://www.w3.org/2000/svg"
   xmlns="http://www.w3.org/2000/svg"
   xmlns:sodipodi="http://sodipodi.sourceforge.net/DTD/sodipodi-0.dtd"
   xmlns:inkscape="http://www.inkscape.org/namespaces/inkscape"
   sodipodi:docname="drawing.svg"
   inkscape:version="1.0beta2 (unknown)"
   id="svg39"
   version="1.1"
   viewBox="0 0 132.29167 132.29167"
   height="500"
   width="500">
  <defs
     id="defs33">
    <rect
       id="rect103"
       height="33.553105"
       width="30.919932"
       y="3.6156506"
       x="44.219771" />
  </defs>
  <sodipodi:namedview
     inkscape:window-maximized="1"
     inkscape:window-y="0"
     inkscape:window-x="0"
     inkscape:window-height="710"
     inkscape:window-width="1366"
     units="px"
     showgrid="false"
     inkscape:document-rotation="0"
     inkscape:current-layer="layer1"
     inkscape:document-units="mm"
     inkscape:cy="286.3884"
     inkscape:cx="349.9306"
     inkscape:zoom="0.62486503"
     inkscape:pageshadow="2"
     inkscape:pageopacity="0.0"
     borderopacity="1.0"
     bordercolor="#666666"
     pagecolor="#ffffff"
     id="base" />
  <metadata
     id="metadata36">
    <rdf:RDF>
      <cc:Work
         rdf:about="">
        <dc:format>image/svg+xml</dc:format>
        <dc:type
           rdf:resource="http://purl.org/dc/dcmitype/StillImage" />
        <dc:title></dc:title>
      </cc:Work>
    </rdf:RDF>
  </metadata>
  <g
     id="layer1"
     inkscape:groupmode="layer"
     inkscape:label="Layer 1">
    <rect
       y="0"
       x="0"
       height="132.29167"
       width="132.29167"
       id="rect95"
       style="fill:#fdd711;fill-rule:evenodd;stroke-width:0.45706;fill-opacity:1" />
    <g
       transform="translate(4.1739908e-7,8.4666666)"
       id="g930">
      <rect
         style="fill:#f9f9f9;fill-opacity:1;stroke:none;stroke-width:0.621624;stroke-linecap:round;stroke-linejoin:round;stroke-miterlimit:4;stroke-dasharray:none;stroke-dashoffset:0"
         id="rect921"
         width="60"
         height="19.860672"
         x="36.145832"
         y="92.629044"
         ry="3.3863778" />
      <g
         transform="matrix(0.77709896,0,0,0.77709896,14.737429,20.690627)"
         id="g879">
        <g
           id="g914"
           style="opacity:1">
          <path
             style="color:#000000;font-style:normal;font-variant:normal;font-weight:normal;font-stretch:normal;font-size:medium;line-height:normal;font-family:sans-serif;font-variant-ligatures:normal;font-variant-position:normal;font-variant-caps:normal;font-variant-numeric:normal;font-variant-alternates:normal;font-variant-east-asian:normal;font-feature-settings:normal;font-variation-settings:normal;text-indent:0;text-align:start;text-decoration:none;text-decoration-line:none;text-decoration-style:solid;text-decoration-color:#000000;letter-spacing:normal;word-spacing:normal;text-transform:none;writing-mode:lr-tb;direction:ltr;text-orientation:mixed;dominant-baseline:auto;baseline-shift:baseline;text-anchor:start;white-space:normal;shape-padding:0;shape-margin:0;inline-size:0;clip-rule:nonzero;display:inline;overflow:visible;visibility:visible;isolation:auto;mix-blend-mode:normal;color-interpolation:sRGB;color-interpolation-filters:linearRGB;solid-color:#000000;solid-opacity:1;vector-effect:none;fill:#fdd711;fill-opacity:1;fill-rule:nonzero;stroke:none;stroke-width:1;stroke-linecap:butt;stroke-linejoin:round;stroke-miterlimit:4;stroke-dasharray:none;stroke-dashoffset:0;stroke-opacity:1;color-rendering:auto;image-rendering:auto;shape-rendering:auto;text-rendering:auto;enable-background:accumulate;stop-color:#000000;stop-opacity:1"
             d="m 53.363629,110.85446 v -3.28194 l 0.104582,0.0262 c 0.260525,0.0651 3.457827,0.7276 3.511732,0.72761 0.0333,1e-5 0.932698,-0.43504 1.998672,-0.96678 2.631367,-1.3126 4.05289,-1.93331 5.806529,-2.53543 1.706435,-0.5859 3.926815,-1.14044 5.973904,-1.49198 l 0.174303,-0.0299 v 5.41711 5.41712 H 62.14849 53.363629 Z m 0,-10.43775 v -3.850044 h 8.784861 8.784861 v 1.90571 1.905714 l -0.104582,9e-4 c -0.05752,4.9e-4 -0.505434,0.0413 -0.995364,0.0908 -5.107438,0.51537 -10.69175,1.76723 -15.644742,3.50717 l -0.825034,0.28982 z"
             id="path916"
             inkscape:connector-curvature="0" />
          <path
             id="path918"
             style="color:#000000;font-style:normal;font-variant:normal;font-weight:normal;font-stretch:normal;font-size:medium;line-height:normal;font-family:sans-serif;font-variant-ligatures:normal;font-variant-position:normal;font-variant-caps:normal;font-variant-numeric:normal;font-variant-alternates:normal;font-variant-east-asian:normal;font-feature-settings:normal;font-variation-settings:normal;text-indent:0;text-align:start;text-decoration:none;text-decoration-line:none;text-decoration-style:solid;text-decoration-color:#000000;letter-spacing:normal;word-spacing:normal;text-transform:none;writing-mode:lr-tb;direction:ltr;text-orientation:mixed;dominant-baseline:auto;baseline-shift:baseline;text-anchor:start;white-space:normal;shape-padding:0;shape-margin:0;inline-size:0;clip-rule:nonzero;display:inline;overflow:visible;visibility:visible;isolation:auto;mix-blend-mode:normal;color-interpolation:sRGB;color-interpolation-filters:linearRGB;solid-color:#000000;solid-opacity:1;vector-effect:none;fill:#f9f9f9;fill-opacity:1;fill-rule:nonzero;stroke:none;stroke-width:3.77953;stroke-linecap:butt;stroke-linejoin:round;stroke-miterlimit:4;stroke-dasharray:none;stroke-dashoffset:0;stroke-opacity:1;color-rendering:auto;image-rendering:auto;shape-rendering:auto;text-rendering:auto;enable-background:accumulate;stop-color:#000000;stop-opacity:1"
             d="m 206.08789,377.29688 a 1.8899528,1.8899528 0 0 0 -1.89062,1.89062 v 14.54883 11.5957 c -5.57544,2.04567 -11.22369,4.23359 -17.16211,6.55664 a 1.8899528,1.8899528 0 0 0 0.23632,3.59571 l 17.24805,4.25 a 1.8899528,1.8899528 0 0 0 -0.32226,1.05078 v 12.40234 12.4082 a 1.8899528,1.8899528 0 0 0 1.88867,1.89063 h 33.20508 33.20312 a 1.8899528,1.8899528 0 0 0 1.89063,-1.89063 v -20.47656 -20.4707 a 1.8899528,1.8899528 0 0 0 -0.10547,-0.61524 c 2.61761,-0.46614 5.19743,-0.87589 7.74609,-1.23828 a 1.8899528,1.8899528 0 0 0 1.62305,-1.86719 v -9.63476 a 1.8899528,1.8899528 0 0 0 -2,-1.88867 c -2.49141,0.13881 -4.90342,0.30352 -7.26367,0.48437 v -3.49609 -7.20508 a 1.8899528,1.8899528 0 0 0 -1.89063,-1.89062 h -33.20312 z m 1.88867,3.77929 h 31.31446 31.31445 v 5.31641 3.82422 c -25.80102,2.28788 -44.08442,7.14413 -62.62891,13.74609 v -10.22656 z m 71.89258,12.29883 v 6.03125 c -16.98255,2.51773 -35.48392,6.99365 -60.26562,20.15234 l -25.2168,-6.21484 c 3.46995,-1.34402 6.85969,-2.63877 10.21875,-3.88281 a 1.8899528,1.8899528 0 0 0 2.10937,0.61133 l 3.11524,-1.0918 c 18.56833,-6.5229 39.5569,-11.23115 58.69336,-13.16211 0.92022,-0.093 1.80686,-0.1751 2.48047,-0.23633 0.6736,-0.0616 1.40967,-0.0983 1.11328,-0.0957 h 0.39258 a 1.8899528,1.8899528 0 0 0 1.86523,-1.71485 c 1.80288,-0.14181 3.61489,-0.2804 5.49414,-0.39648 z m -9.26367,13.62891 v 18.11328 18.58789 h -31.31445 -31.31446 v -10.51953 -10.05469 c 1.35617,0.29367 2.75907,0.59587 5.04883,1.07031 1.58677,0.32882 3.15266,0.64721 4.33399,0.88672 0.59066,0.11981 1.08783,0.22462 1.44726,0.29492 0.17972,0.034 0.32234,0.0612 0.43555,0.082 0.0566,0.0113 0.1041,0.0217 0.15429,0.0293 0.0249,0.004 0.0498,0.0118 0.0879,0.0156 0.0381,0.004 0.27022,0.0156 0.27343,0.0156 0.002,0 0.34603,-0.0272 0.42188,-0.0449 0.0759,-0.0151 0.11688,-0.0347 0.15429,-0.0449 0.0748,-0.0227 0.11484,-0.0368 0.1543,-0.0508 0.0789,-0.0302 0.14428,-0.0596 0.21484,-0.0899 0.14113,-0.0612 0.30979,-0.138 0.51758,-0.23437 0.41562,-0.19314 0.98609,-0.46521 1.67578,-0.79883 1.37939,-0.66724 3.23567,-1.58211 5.25586,-2.58984 9.915,-4.94589 15.16948,-7.23831 21.7168,-9.48633 5.88033,-2.01903 13.55443,-3.86489 20.73633,-5.18164 z"
             transform="matrix(0.26458333,0,0,0.26458333,-1.1639026,-3.7601658)"
             inkscape:connector-curvature="0" />
        </g>
        <path
           inkscape:connector-curvature="0"
           id="path881"
           d="m 31.485827,114.16132 c -0.235871,-0.10259 -0.293512,-0.27134 -0.293512,-0.85928 v -0.5136 h 0.13792 0.13792 l 0.01314,0.51802 c 0.01269,0.50001 0.01744,0.52122 0.136918,0.6103 0.08433,0.0629 0.161066,0.0829 0.240774,0.0629 0.233695,-0.0587 0.262941,-0.13465 0.262941,-0.68328 v -0.50797 h 0.139442 0.139442 v 0.50827 c 0,0.27954 -0.02039,0.5619 -0.04532,0.62747 -0.09992,0.2628 -0.536768,0.38192 -0.869665,0.23714 z m 7.431407,0.0254 c -0.06685,-0.0169 -0.154172,-0.11438 -0.232404,-0.25947 -0.09737,-0.18057 -0.153822,-0.23568 -0.253139,-0.24711 -0.125895,-0.0145 -0.127822,-0.0108 -0.127822,0.24403 0,0.25649 -0.0012,0.25873 -0.139443,0.25873 h -0.139442 v -0.69721 -0.69722 h 0.346419 c 0.19053,0 0.397387,0.0232 0.459682,0.0516 0.120935,0.0551 0.216475,0.21894 0.216475,0.37122 0,0.12068 -0.120698,0.3533 -0.196565,0.37883 -0.04328,0.0146 -0.04568,0.0374 -0.009,0.0855 0.02755,0.0361 0.105639,0.16291 0.173524,0.28177 0.130712,0.22887 0.108162,0.28146 -0.0983,0.22928 z m -0.204335,-0.80329 c 0.03068,-0.0307 0.05578,-0.0997 0.05578,-0.15339 0,-0.14407 -0.08968,-0.20916 -0.288181,-0.20916 h -0.176626 v 0.20916 0.20917 h 0.176626 c 0.09715,0 0.201727,-0.0251 0.232404,-0.0558 z m 0.86315,0.779 c -0.191489,-0.0833 -0.218764,-0.13689 -0.116735,-0.22923 0.07803,-0.0706 0.09545,-0.0706 0.237854,4.7e-4 0.188659,0.0941 0.396209,0.0415 0.396209,-0.10049 0,-0.0647 -0.08162,-0.13518 -0.276351,-0.23859 -0.311669,-0.1655 -0.39762,-0.25905 -0.39762,-0.4328 0,-0.28873 0.33746,-0.47018 0.695249,-0.37384 0.219276,0.059 0.25607,0.10553 0.18647,0.23558 -0.03595,0.0672 -0.07641,0.0871 -0.129971,0.0641 -0.245406,-0.10546 -0.472863,-0.0556 -0.472863,0.10356 0,0.0363 0.134371,0.12626 0.298603,0.19994 0.430589,0.1932 0.523512,0.4416 0.262741,0.70237 -0.109232,0.10923 -0.175292,0.13551 -0.336985,0.13405 -0.110615,-10e-4 -0.266586,-0.0303 -0.346601,-0.0651 z m 1.27264,0.0317 c -0.07303,-0.0162 -0.08134,-0.089 -0.08134,-0.71187 v -0.69381 h 0.139442 0.139442 v 0.69224 c 0,0.71745 -0.0104,0.75501 -0.197543,0.71344 z m 38.071359,-0.0312 c -1.618852,-0.28639 -2.69357,-1.34668 -3.042097,-3.00125 -0.07527,-0.35733 -0.08479,-0.76264 -0.0996,-4.24137 l -0.01637,-3.84628 h 0.976223 0.976223 l 0.01641,3.6836 c 0.01628,3.65396 0.01724,3.68634 0.120064,4.0247 0.148753,0.48953 0.309176,0.77949 0.582176,1.05229 0.428943,0.42863 1.077972,0.64159 1.842906,0.6047 0.711727,-0.0343 1.18096,-0.22351 1.606923,-0.64787 0.38962,-0.38816 0.612128,-0.89214 0.688464,-1.55939 0.01316,-0.11504 0.02499,-1.77266 0.02629,-3.68359 l 0.0024,-3.47444 h 0.976096 0.976096 v 5.50797 5.50797 h -0.974414 -0.974413 l -0.0133,-0.4377 -0.0133,-0.4377 -0.27373,0.20709 c -0.358129,0.27095 -0.941137,0.55033 -1.402087,0.67188 -0.47487,0.12522 -1.468591,0.16003 -1.980912,0.0694 z m 17.554471,0.002 c -1.830909,-0.30165 -3.092977,-1.42578 -3.685193,-3.28243 -0.228699,-0.71698 -0.309855,-1.33797 -0.306759,-2.34728 0.0029,-0.94861 0.0616,-1.40241 0.277899,-2.14881 0.677615,-2.33831 2.627715,-3.63939 5.118269,-3.41483 1.219255,0.10994 1.907086,0.42953 2.819035,1.30982 l 0.4583,0.4424 -0.66629,0.63378 -0.666295,0.63377 -0.436515,-0.41311 c -0.478329,-0.4527 -0.908875,-0.70296 -1.35007,-0.78477 -0.370178,-0.0686 -1.108515,-0.0564 -1.424793,0.0237 -1.056238,0.26736 -1.815324,1.1178 -2.074013,2.32363 -0.08218,0.38306 -0.10031,0.62831 -0.103099,1.39442 -0.002,0.54831 0.02051,1.07009 0.05487,1.27207 0.269119,1.58227 1.207379,2.51737 2.645591,2.63666 0.878105,0.0728 1.547851,-0.18348 2.251769,-0.86175 l 0.427855,-0.41226 0.66537,0.63106 c 0.36596,0.34708 0.66538,0.64566 0.66538,0.66352 0,0.0569 -0.72922,0.73156 -1.03045,0.95331 -0.395399,0.29108 -0.958239,0.5554 -1.433021,0.67297 -0.506622,0.12545 -1.66106,0.16422 -2.207836,0.0741 z m -63.608897,-0.6795 v -0.69722 h 0.131686 c 0.115355,0 0.173,0.0611 0.464807,0.49259 l 0.333121,0.49258 v -0.49258 -0.49259 h 0.139443 0.139442 v 0.69722 0.69721 h -0.154015 c -0.142514,0 -0.176355,-0.0329 -0.453187,-0.44089 -0.164545,-0.24248 -0.31211,-0.44119 -0.327923,-0.44156 -0.01581,-3.8e-4 -0.02627,0.19801 -0.02324,0.44086 l 0.0055,0.44155 -0.127822,2e-5 -0.127822,2e-5 z m 1.673306,0 v -0.69722 h 0.139443 0.139442 v 0.69722 0.69721 h -0.139442 -0.139443 z m 0.95011,0.36022 c -0.06989,-0.18534 -0.186759,-0.48917 -0.259708,-0.67518 -0.07295,-0.18601 -0.132633,-0.34811 -0.132633,-0.36022 0,-0.0121 0.06808,-0.022 0.151277,-0.022 h 0.151277 l 0.182249,0.53977 0.18225,0.53977 0.187348,-0.53977 0.187349,-0.53977 h 0.152697 0.152696 l -0.119933,0.31375 c -0.06596,0.17256 -0.183615,0.4863 -0.261449,0.69721 -0.137864,0.37357 -0.145451,0.38347 -0.293931,0.38347 -0.146532,0 -0.157319,-0.013 -0.279489,-0.33699 z m 1.234485,-0.36022 v -0.69722 h 0.441567 c 0.440018,0 0.441567,4.2e-4 0.441567,0.11621 0,0.11203 -0.01084,0.1162 -0.302124,0.1162 h -0.302125 v 0.18592 c 0,0.10226 0.01569,0.18345 0.03486,0.18042 0.01917,-0.003 0.134213,-0.003 0.255644,0 0.203048,0.005 0.220784,0.0148 0.220784,0.12171 0,0.10986 -0.01394,0.1162 -0.255644,0.1162 h -0.255644 v 0.19068 0.19068 l 0.325365,-0.0177 c 0.312852,-0.0171 0.325365,-0.0137 0.325365,0.0882 0,0.1032 -0.01201,0.10594 -0.464807,0.10594 h -0.464808 z m 5.066401,0.1162 v -0.58101 h -0.232403 c -0.216911,0 -0.232404,-0.008 -0.232404,-0.1162 v -0.11621 h 0.62749 0.62749 v 0.11621 c 0,0.10986 -0.01394,0.1162 -0.255644,0.1162 h -0.255644 v 0.58101 0.58101 h -0.139442 -0.139443 z m 1.069057,-0.1162 v -0.69722 h 0.441567 c 0.440018,0 0.441568,4.2e-4 0.441568,0.11621 0,0.11203 -0.01085,0.1162 -0.302125,0.1162 h -0.302125 v 0.18649 0.18649 l 0.244024,-0.0122 c 0.235128,-0.0117 0.24456,-0.008 0.258731,0.11564 0.01449,0.12589 0.01081,0.12782 -0.244024,0.12782 h -0.258731 v 0.18592 0.18592 h 0.325365 c 0.294378,0 0.325365,0.009 0.325365,0.093 0,0.0868 -0.03099,0.093 -0.464807,0.093 h -0.464808 z m 3.566552,0.57196 c -0.01162,-0.0206 0.02716,-0.3721 0.08619,-0.78113 0.05903,-0.40903 0.201548,-1.41301 0.316717,-2.23107 0.115168,-0.81806 0.3037,-2.15671 0.418958,-2.97477 0.115259,-0.81806 0.303335,-2.15671 0.417945,-2.97477 0.210525,-1.50266 0.660803,-4.7034 1.003273,-7.131623 0.102512,-0.726843 0.186385,-1.338645 0.186385,-1.359562 0,-0.02092 0.04453,-0.03803 0.09895,-0.03803 0.116627,0 0.132602,-0.185608 -0.168019,1.952191 -0.11324,0.805279 -0.290749,2.070714 -0.394465,2.812084 -0.103716,0.74137 -0.281441,2.00681 -0.394945,2.81209 -0.208617,1.48008 -0.458496,3.25709 -0.839878,5.97277 -0.561451,3.99789 -0.553657,3.94915 -0.633905,3.9646 -0.04184,0.008 -0.08558,-0.002 -0.0972,-0.0228 z m 42.935662,-0.0362 c -1.157129,-0.2519 -1.951736,-1.17651 -2.112425,-2.45802 -0.02782,-0.22186 -0.04716,-1.69668 -0.04716,-3.59611 v -3.22001 h -0.67397 -0.673971 v -0.79018 -0.79017 l 0.151063,-0.002 c 0.08308,-10e-4 0.386371,-0.002 0.673971,-0.002 l 0.522908,6.9e-4 v -1.67161 -1.671604 h 0.976096 0.976095 v 1.650064 c 0,1.28621 0.01281,1.65125 0.0581,1.65543 0.03196,0.003 0.07902,0.0102 0.104582,0.0162 0.02556,0.006 0.511869,0.014 1.080677,0.0179 l 1.034197,0.007 v 0.79017 0.79018 h -1.14094 -1.140944 l 0.01599,3.35823 c 0.0175,3.67446 0.008,3.55016 0.297551,3.88845 0.244763,0.28595 0.442134,0.34334 1.259507,0.36624 l 0.708832,0.0198 v 0.85493 0.85493 l -0.894755,-0.004 c -0.551842,-0.002 -1.002315,-0.0271 -1.175409,-0.0648 z m -46.130368,-1.35081 c 0,-0.0137 0.03378,-0.0764 0.07507,-0.13944 0.05137,-0.0784 0.117841,-0.11457 0.210555,-0.11457 h 0.135488 l -0.103094,0.13944 c -0.06284,0.085 -0.145051,0.13944 -0.210555,0.13944 -0.0591,0 -0.107461,-0.0112 -0.107461,-0.0249 z m -11.864209,-0.56099 c -0.185416,-0.0796 -0.217767,-0.15686 -0.104885,-0.25054 0.05577,-0.0463 0.100702,-0.0428 0.228506,0.0179 0.19724,0.0936 0.399287,0.0367 0.399287,-0.1125 0,-0.0723 -0.06344,-0.12473 -0.251636,-0.20795 -0.419947,-0.18572 -0.518773,-0.35092 -0.375583,-0.62782 0.08376,-0.16198 0.353381,-0.25872 0.594824,-0.21342 0.210219,0.0394 0.288382,0.12951 0.221244,0.25496 -0.04713,0.0881 -0.0596,0.0894 -0.216789,0.0237 -0.150131,-0.0627 -0.178235,-0.0622 -0.281471,0.005 -0.06308,0.0413 -0.106875,0.0999 -0.09732,0.13028 0.0095,0.0303 0.140435,0.12117 0.290857,0.20188 0.150422,0.0807 0.30078,0.18406 0.334129,0.22967 0.09222,0.12612 0.07266,0.32487 -0.04548,0.46222 -0.134765,0.15668 -0.442526,0.19478 -0.695677,0.0861 z m 1.594686,-0.0268 c -0.276284,-0.14424 -0.385518,-0.30573 -0.409584,-0.60552 -0.01622,-0.20205 -3.39e-4,-0.27422 0.08898,-0.40436 0.187642,-0.2734 0.333381,-0.35106 0.660596,-0.35202 0.25055,-7.4e-4 0.316514,0.018 0.46748,0.13309 0.546619,0.41657 0.312279,1.2361 -0.375081,1.31173 -0.1789,0.0197 -0.268932,0.002 -0.432389,-0.0829 z m 0.608238,-0.22757 c 0.103097,-0.0552 0.225694,-0.28046 0.225694,-0.41474 0,-0.16649 -0.13873,-0.37603 -0.291477,-0.44026 -0.421167,-0.17708 -0.819449,0.24011 -0.622836,0.65241 0.121801,0.25542 0.423862,0.34428 0.688619,0.20259 z m 4.22233,0.22437 c -0.256977,-0.13025 -0.389015,-0.34717 -0.389015,-0.63911 0,-0.29193 0.132038,-0.50885 0.389015,-0.63911 0.256743,-0.13013 0.471274,-0.13258 0.727973,-0.008 0.583799,0.28261 0.500526,1.16582 -0.126885,1.34575 -0.23987,0.0688 -0.374763,0.0555 -0.601088,-0.0592 z m 0.503952,-0.17074 c 0.03392,-0.002 0.122816,-0.0647 0.197543,-0.13943 0.345614,-0.34561 -0.02882,-0.9697 -0.479085,-0.79851 -0.204818,0.0779 -0.314663,0.23455 -0.314663,0.44883 0,0.28833 0.240414,0.5502 0.464807,0.5063 0.03835,-0.008 0.09748,-0.0152 0.131398,-0.0172 z m -3.803376,-0.46837 c 0,-0.77828 -0.03626,-0.70495 0.348605,-0.70495 0.396127,0 0.449705,0.0117 0.559882,0.12183 0.157172,0.15717 0.157887,0.43825 0.0015,0.58877 l -0.112591,0.10836 0.163072,0.2916 0.163072,0.2916 h -0.156693 c -0.142217,0 -0.169425,-0.0236 -0.294505,-0.25548 -0.115536,-0.21418 -0.158474,-0.2555 -0.265634,-0.25564 -0.123968,-1.4e-4 -0.127822,0.008 -0.127822,0.25548 0,0.25306 -0.0014,0.25564 -0.139442,0.25564 h -0.139443 z m 0.67065,-0.11952 c 0.08778,-0.0878 0.09485,-0.22363 0.01494,-0.28705 -0.03196,-0.0254 -0.136538,-0.0602 -0.232404,-0.0775 l -0.174303,-0.0314 v 0.23451 0.23451 h 0.159363 c 0.08765,0 0.192231,-0.0329 0.232403,-0.073 z m 0.816733,0.11952 c 0,-0.63163 0.0077,-0.69755 0.08134,-0.70087 0.332875,-0.015 0.701559,0.0201 0.786133,0.0749 0.139787,0.0905 0.183292,0.32041 0.08811,0.46568 -0.07056,0.10768 -0.06938,0.12103 0.01913,0.21603 0.09332,0.10017 0.121375,0.28456 0.06547,0.43026 -0.05401,0.14075 -0.276271,0.21124 -0.66603,0.21124 h -0.374155 z m 0.761934,0.36023 c 0.08681,-0.13844 -0.02031,-0.24201 -0.267027,-0.25819 l -0.216022,-0.0142 v 0.19102 0.19101 l 0.216022,-0.0142 c 0.143999,-0.009 0.233028,-0.0413 0.267027,-0.0955 z m -0.06017,-0.60114 c 0.04577,-0.0855 0.03925,-0.11365 -0.04149,-0.17904 -0.05269,-0.0427 -0.154826,-0.0754 -0.226972,-0.0728 -0.117011,0.004 -0.13273,0.0236 -0.145599,0.17904 l -0.01443,0.1743 h 0.187094 c 0.14475,0 0.199383,-0.023 0.241397,-0.10147 z m 2.691331,0.24633 v -0.69179 l 0.113197,-0.0216 c 0.06226,-0.0119 0.131881,-0.009 0.154717,0.006 0.02284,0.0153 0.181061,0.23316 0.35161,0.4841 l 0.310091,0.45625 v -0.46787 -0.46788 h 0.139442 0.139442 v 0.69721 0.69721 h -0.137944 c -0.122449,0 -0.174663,-0.0531 -0.464808,-0.47238 l -0.326863,-0.47238 v 0.47238 0.47238 h -0.139442 -0.139442 z m 1.752713,0.0295 c 0.0053,-0.3643 0.01056,-0.67805 0.01162,-0.69723 0.0011,-0.0192 0.06176,-0.0349 0.134869,-0.0349 0.11634,0 0.172914,0.0586 0.453188,0.46936 l 0.320252,0.46936 0.02324,-0.48098 c 0.01278,-0.26454 0.03893,-0.47575 0.0581,-0.46936 0.01917,0.006 0.07669,0.0116 0.127822,0.0116 0.08883,0 0.09296,0.031 0.09296,0.69721 v 0.69721 h -0.155967 c -0.146535,0 -0.176215,-0.0302 -0.490759,-0.49966 l -0.334792,-0.49967 0.01537,0.49967 0.01537,0.49966 -0.140476,2e-5 -0.140476,2e-5 z m 1.733342,-0.0349 v -0.69721 h 0.395087 c 0.217297,0 0.410773,-8.3e-4 0.429947,-0.002 0.01917,-0.001 0.04154,0.0408 0.04971,0.093 0.01368,0.0873 -0.0093,0.0948 -0.290505,0.0948 h -0.305357 v 0.18592 0.18592 h 0.255644 c 0.2417,0 0.255644,0.006 0.255644,0.1162 0,0.12012 -0.01666,0.12537 -0.406706,0.12819 -0.09028,6.5e-4 -0.104582,0.0253 -0.104582,0.18031 v 0.17955 h 0.325365 c 0.316069,0 0.325365,0.003 0.325365,0.1162 v 0.1162 h -0.464807 -0.464808 z m -1.557105,-1.36921 c -0.464527,-0.1696 -0.631433,-0.76853 -0.317978,-1.14105 0.163758,-0.19461 0.343411,-0.27858 0.596048,-0.27858 0.387656,0 0.646637,0.17514 0.472587,0.31958 -0.04707,0.0391 -0.10037,0.0333 -0.213214,-0.023 -0.164814,-0.0822 -0.42551,-0.0641 -0.54879,0.0381 -0.04002,0.0332 -0.100646,0.12702 -0.134711,0.20852 -0.185075,0.44275 0.297554,0.82806 0.744951,0.59474 0.101166,-0.0528 0.149666,-0.057 0.197543,-0.0173 0.103168,0.0856 0.07347,0.16537 -0.09055,0.24321 -0.234908,0.11147 -0.496547,0.13211 -0.705889,0.0557 z m -10.145372,-0.0334 c 0.01278,-0.0338 0.133586,-0.36067 0.26846,-0.72632 l 0.245225,-0.66481 0.143614,0.0141 c 0.140278,0.0138 0.149707,0.0305 0.405955,0.72291 l 0.262342,0.70883 h -0.149487 c -0.134429,0 -0.155167,-0.019 -0.205864,-0.18816 l -0.05638,-0.18817 -0.260781,0.0139 c -0.252379,0.0134 -0.26253,0.0191 -0.315058,0.17655 -0.04553,0.13646 -0.07902,0.16511 -0.207771,0.17772 -0.112209,0.011 -0.147245,-0.002 -0.130259,-0.0465 z m 0.824466,-0.5372 c -8.35e-4,-0.0196 -0.04023,-0.14769 -0.08754,-0.2847 l -0.08602,-0.24911 -0.07853,0.23644 c -0.04319,0.13005 -0.06814,0.25326 -0.05544,0.27381 0.03007,0.0487 0.309512,0.0701 0.30753,0.0236 z m 1.070574,-0.12856 v -0.72045 h 0.139443 0.139442 v 0.60425 0.60425 h 0.325365 c 0.316069,0 0.325365,0.003 0.325365,0.1162 v 0.1162 h -0.464807 -0.464808 z m 1.533865,0 v -0.72045 h 0.139442 0.139442 v 0.60425 0.60425 h 0.325366 c 0.316069,0 0.325365,0.003 0.325365,0.1162 v 0.1162 h -0.464808 -0.464807 z m 1.533865,0 v -0.72045 h 0.139442 0.139442 v 0.72045 0.72045 h -0.139442 -0.139442 z m 1.074185,0.20046 c 0.104707,-0.2892 0.221561,-0.61472 0.259676,-0.72337 0.06187,-0.17636 0.08512,-0.19754 0.216833,-0.19754 0.143416,0 0.151588,0.0113 0.292793,0.40671 0.07989,0.22368 0.198846,0.54789 0.264341,0.72045 l 0.119081,0.31374 h -0.153242 c -0.138816,0 -0.15855,-0.0177 -0.209619,-0.18816 l -0.05638,-0.18817 -0.260781,0.0139 c -0.252378,0.0134 -0.262529,0.0191 -0.315057,0.17655 -0.04483,0.13435 -0.07985,0.16521 -0.201151,0.17722 l -0.146873,0.0145 z m 0.642,-0.0944 c -0.002,-0.0328 -0.04023,-0.16366 -0.085,-0.2909 l -0.08139,-0.23133 -0.07769,0.22799 c -0.105935,0.31091 -0.101125,0.3303 0.085,0.34284 0.108414,0.007 0.161482,-0.009 0.159081,-0.0486 z m 1.10997,-0.0479 c -0.0077,-0.36429 -0.0062,-0.68963 0.0035,-0.72296 0.01011,-0.0349 0.06862,-0.0546 0.138031,-0.0465 0.111547,0.0131 0.287439,0.22966 0.736431,0.90674 0.04465,0.0673 0.0559,-0.0132 0.0581,-0.41617 l 0.0027,-0.49967 h 0.139442 0.139442 v 0.72045 0.72045 l -0.151062,-10e-4 c -0.139421,-0.001 -0.177013,-0.0396 -0.487801,-0.49662 l -0.336738,-0.49521 0.01137,0.49669 0.01137,0.49669 -0.125372,-5e-5 -0.125372,-4e-5 -0.01407,-0.66235 z m 3.867072,-0.0581 v -0.72045 h 0.464807 0.464808 v 0.1162 c 0,0.11183 -0.01118,0.1162 -0.297152,0.1162 -0.316496,0 -0.353579,0.0272 -0.353579,0.25945 0,0.10525 0.01625,0.1124 0.255644,0.1124 0.2417,0 0.255644,0.006 0.255644,0.1162 0,0.10812 -0.01582,0.1162 -0.22743,0.1162 -0.24125,0 -0.283858,0.0389 -0.283858,0.25945 0,0.10817 0.01223,0.1124 0.325365,0.1124 0.316069,0 0.325366,0.003 0.325366,0.1162 v 0.1162 h -0.464808 -0.464807 z m -5.670651,-2.47438 c -1.076613,-0.0721 -2.170879,-0.62084 -2.608679,-1.30805 l -0.129586,-0.20341 0.09663,-0.19167 c 0.05314,-0.10543 0.102855,-0.19874 0.110468,-0.20736 0.0076,-0.009 0.149206,0.096 0.314651,0.2324 0.39062,0.32216 0.887246,0.57297 1.3773,0.6956 0.318439,0.0797 0.485113,0.094 0.883134,0.0759 0.95784,-0.0435 1.473104,-0.38944 1.658649,-1.11369 0.132375,-0.51672 0.0025,-0.9857 -0.366763,-1.32445 -0.291536,-0.26745 -0.634726,-0.42988 -1.452001,-0.68723 -0.996896,-0.3139 -1.531098,-0.59922 -2.000407,-1.06841 -0.493637,-0.49353 -0.723581,-0.99074 -0.716552,-1.54942 l 0.0022,-0.17202 0.111788,0.21461 c 0.06148,0.11803 0.2515,0.34262 0.422258,0.49909 0.515121,0.47201 1.319611,0.81669 2.767351,1.18565 0.73153,0.18643 1.218745,0.37818 1.631462,0.64211 0.895625,0.57273 1.268892,1.31219 1.148074,2.27438 -0.11146,0.88767 -0.830979,1.60056 -1.892534,1.87509 -0.297616,0.077 -1.061941,0.15064 -1.357402,0.13084 z m 3.251076,-3.69054 c -0.09323,-0.22509 -0.389836,-0.57545 -0.659503,-0.77905 -0.510593,-0.38548 -1.242312,-0.67822 -2.335929,-0.93453 -0.810141,-0.18987 -1.13358,-0.29876 -1.608152,-0.54144 -0.50284,-0.25713 -0.871897,-0.61211 -1.071752,-1.030865 -0.172747,-0.361958 -0.229555,-0.945234 -0.132602,-1.361487 0.242596,-1.041557 1.271849,-1.851061 2.508483,-1.972916 0.312846,-0.03083 0.339732,-0.02681 0.311586,0.04654 -0.01694,0.04415 -0.0308,0.15177 -0.0308,0.239154 0,0.100956 -0.02247,0.158881 -0.06162,0.158881 -0.136252,0 -0.263747,0.209284 -0.263747,0.432943 0,0.20132 -0.0088,0.217788 -0.116201,0.217788 -0.07948,0 -0.116371,0.02571 -0.116735,0.08134 -3.26e-4,0.04845 -0.07386,0.116461 -0.181864,0.168186 -0.510227,0.244363 -0.834942,0.889129 -0.742449,1.474235 0.09668,0.611571 0.492189,0.868881 1.892252,1.231061 0.721875,0.18673 1.334561,0.46262 1.735861,0.78165 0.495762,0.39411 0.869261,1.05247 0.94613,1.6677 0.03742,0.29954 0.01586,0.33524 -0.07296,0.12081 z m -3.845424,-3.837151 c 0.01286,-0.43975 0.01728,-0.456653 0.123281,-0.471651 0.06047,-0.0086 0.126831,0.0019 0.147473,0.02324 0.02064,0.02134 0.04402,0.227043 0.05194,0.457123 l 0.01441,0.418327 -0.175224,0.01453 -0.175224,0.01453 z m 0.73046,0.345697 c -0.0132,-0.414554 0.0046,-0.751977 0.04173,-0.789064 0.02411,-0.02411 0.09331,-0.03684 0.153782,-0.02828 0.105944,0.01499 0.110427,0.03204 0.123246,0.468743 l 0.0133,0.453187 h -0.164366 c -0.13848,0 -0.16489,-0.01647 -0.167696,-0.104582 z m 0.700541,-0.286703 c 0,-0.47973 0.02024,-0.53833 0.185923,-0.53833 0.165685,0 0.185923,0.0586 0.185923,0.53833 v 0.391285 h -0.185923 -0.185923 z m 1.022577,0.09145 c 0,-0.641631 -0.203282,-1.097658 -0.650731,-1.459795 -0.140604,-0.113797 -0.270657,-0.245508 -0.289007,-0.292693 -0.01835,-0.04718 -0.07321,-0.08579 -0.121908,-0.08579 -0.07271,0 -0.09269,-0.0431 -0.111709,-0.241069 -0.0216,-0.22481 -0.106195,-0.358996 -0.263273,-0.417616 -0.02253,-0.0084 -0.05421,-0.114639 -0.0704,-0.236069 -0.02934,-0.220005 -0.02896,-0.220784 0.107215,-0.220784 0.07516,0 0.300007,0.03125 0.499654,0.06945 0.937486,0.179371 1.676461,0.801605 2.005301,1.68851 0.09246,0.249378 0.11973,0.426984 0.13864,0.90306 l 0.02354,0.59263 h -0.63366 -0.633659 z m -1.719788,-2.018509 c 0,-0.365599 0.289396,-0.377103 0.316418,-0.01258 0.01428,0.192639 0.01415,0.19281 -0.151063,0.19281 -0.161057,0 -0.165355,-0.0047 -0.165355,-0.180232 z"
           style="fill:#4d4d4d;stroke-width:0.0464807"
           sodipodi:nodetypes="csccccccscccsccccccsscccscsccccccsscccscccccscscccsccccccscccscccsccccsccccccccccccccccccccccccccccccccccccccsccccccsscccccccsccccccccccccccccccsscccccccccsccccssscsccssccccssccccsscccssccccccccssscccccscccssscccscccssssssscccccsccccccccccccscccccccccccccccccccsccscccccscccccccccccccscccccccsccccsccccccccsccccscccccsccssccccccccsccccccccscccccccccccccccsccccccccccccccscccccccccsccccsscscccccccccsccscccsscscssccccccscccccccccccccccsccccccccccccccccccccssccccccccccsscccccccccccccccscccscccccccccccccccccccccccccccccccccccccssssssssscccccsccccccccccccccccscccccccccccsssscccccccccccccccccccccsccssscccscccscccsccsccccccscc" />
        <path
           id="rect38"
           style="fill:#4d4d4d;fill-opacity:1;stroke:none;stroke-width:1;stroke-linecap:round;stroke-miterlimit:4;stroke-dasharray:none;stroke-dashoffset:0"
           d="m 72.885542,100.27089 -0.763778,0.031 c -0.419918,0.0168 -0.874683,0.0407 -1.01079,0.0532 -0.136107,0.0125 -0.603068,0.0551 -1.037664,0.0946 -4.553085,0.41339 -9.851557,1.53872 -14.687992,3.12023 -1.502587,0.49133 -4.687245,1.68511 -5.168675,1.93734 -0.114332,0.0599 -0.02826,0.0867 1.337903,0.4191 0.803113,0.1954 2.349476,0.5732 3.435966,0.83922 1.086485,0.26602 1.983637,0.48583 1.993675,0.48783 0.01003,0.002 0.752528,-0.36075 1.650029,-0.80615 0.897501,-0.44541 2.0119,-0.97846 2.476852,-1.18442 3.376869,-1.49593 6.425681,-2.39596 10.402982,-3.07114 0.613545,-0.10415 1.173552,-0.20077 1.243852,-0.21497 l 0.12764,-0.0259 v -0.83974 z"
           inkscape:connector-curvature="0" />
      </g>
    </g>
    <text
       id="text99"
       y="76.779617"
       x="64.765396"
       style="font-style:normal;font-weight:normal;font-size:30.3389px;line-height:1.25;font-family:sans-serif;fill:#4d4d4d;fill-opacity:1;stroke:none;stroke-width:0.264583"
       xml:space="preserve"><tspan
         style="font-style:normal;font-variant:normal;font-weight:normal;font-stretch:normal;font-family:Trueno;-inkscape-font-specification:Trueno;text-align:center;text-anchor:middle;fill:#4d4d4d;fill-opacity:1;stroke-width:0.264583"
         y="76.779617"
         x="64.765396"
         id="tspan97"
         sodipodi:role="line">FE 205A</tspan></text>
    <text
       style="font-style:normal;font-weight:normal;font-size:10.5833px;line-height:1.25;font-family:sans-serif;white-space:pre;shape-inside:url(#rect103);fill:#000000;fill-opacity:1;stroke:none;"
       id="text101"
       xml:space="preserve" />
    <text
       id="text117"
       y="12.242523"
       x="67.024246"
       style="font-style:normal;font-weight:normal;font-size:10.5833px;line-height:1.25;font-family:sans-serif;text-align:center;text-anchor:middle;fill:#4d4d4d;fill-opacity:1;stroke:none;stroke-width:0.264583"
       xml:space="preserve"><tspan
         style="font-style:normal;font-variant:normal;font-weight:normal;font-stretch:normal;font-family:Trueno;-inkscape-font-specification:Trueno;text-align:center;text-anchor:middle;fill:#4d4d4d;fill-opacity:1;stroke-width:0.264583"
         y="12.242523"
         x="67.024246"
         id="tspan115"
         sodipodi:role="line">Élu·e·s </tspan><tspan
         id="tspan119"
         style="font-style:normal;font-variant:normal;font-weight:normal;font-stretch:normal;font-family:Trueno;-inkscape-font-specification:Trueno;text-align:center;text-anchor:middle;fill:#4d4d4d;fill-opacity:1;stroke-width:0.264583"
         y="25.834951"
         x="67.024246"
         sodipodi:role="line">étu</tspan></text>
  </g>
</svg>
